<?xml version="1.0" encoding="utf-8"?>
<!-- Generator: Adobe Illustrator 22.1.0, SVG Export Plug-In . SVG Version: 6.00 Build 0)  -->
<svg version="1.1" id="Layer_1" xmlns="http://www.w3.org/2000/svg" xmlns:xlink="http://www.w3.org/1999/xlink" x="0px" y="0px"
	 viewBox="0 0 38 38" enable-background="new 0 0 38 38" xml:space="preserve">
<g>
	<path fill="#FFFFFF" d="M13.6,22.5L13.1,38l10.2-13.6l11.5,3.3l-7-10.6L38,6.6l-16.1,3.5L12.7,0l0.6,13.4L0,19.2L13.6,22.5z"/>
</g>
</svg>
