<?xml version="1.0" encoding="utf-8"?>
<!-- Generator: Adobe Illustrator 24.0.1, SVG Export Plug-In . SVG Version: 6.00 Build 0)  -->
<svg version="1.1" id="Layer_1" xmlns="http://www.w3.org/2000/svg" xmlns:xlink="http://www.w3.org/1999/xlink" x="0px" y="0px"
	 viewBox="0 0 201.9 192" style="enable-background:new 0 0 201.9 192;" xml:space="preserve">
<style type="text/css">
	.st0{fill:#00136F;}
	.st1{fill:#FFFFFF;}
	.st2{fill-rule:evenodd;clip-rule:evenodd;fill:#3D72F6;}
	.st3{fill-rule:evenodd;clip-rule:evenodd;fill:#FFFFFF;}
</style>
<g>
	<g>
		<path class="st0" d="M105.9,0c-53,0-96,43-96,96c0,2.5,0.1,4.9,0.3,7.3c9.6-7,21.7-11.1,33.4-11.1c15.2,0,28.7,6.4,39.7,16.4
			c11,10.1,15.8,25.2,16.4,39.7c0.6,14-6.7,29.9-16.4,39.7c-0.4,0.4-0.7,0.7-1.1,1c7.6,1.9,15.6,3,23.8,3c53,0,96-43,96-96
			S158.9,0,105.9,0z"/>
		<path class="st1" d="M60.6,50.7V95c8.3,2.8,16,7.5,22.6,13.6c9.3,8.5,14.1,20.5,15.8,32.7h52.3V50.7H60.6z"/>
	</g>
	<g>
		<g>
			<path class="st0" d="M131.9,94.2c-1.1,0-2.3,0-3.5,0c0,1.1,0,2.1,0,3.2c0,0.1,0.3,0.3,0.5,0.3c1,0,1.9,0,2.9,0c0,2.3,0,4.6,0,6.9
				c0.9,0,1.8,0,2.6,0c1,0,0.9-0.1,0.9,0.9c0,1.7,0,3.5,0,5.2c0,0.2,0,0.5,0,0.8c-1.2,0-2.3,0-3.4,0c0,2.4,0,4.6,0,7
				c1,0,1.9,0,2.8,0c0.5,0,0.6,0.1,0.6,0.6c0,0.9,0,1.9,0,2.9c2.3,0,4.6,0,6.9,0c0,1.1,0,2.1,0,3.1c0,0.1-0.2,0.3-0.4,0.3
				c-0.5,0-1.1,0-1.6,0c-2.5,0-5.1,0-7.6,0c-0.2,0-0.5,0-0.8,0c0,2.3,0,4.6,0,6.9c-1.1,0-3.4,0-3.4,0s0-2,0-2.7c0-0.2,0-0.4,0-0.7
				c-2.3,0-4.6,0-6.9,0c0-1,0-1.9,0-2.9c0-0.5,0-0.1,0-0.6c-0.9,0-2.5,0-3.5,0c0-1.2,0-2.3,0-3.4c2.3,0,4.6,0,6.9,0
				c0-1.2,0-2.3,0-3.5c-0.2,0-0.4,0-0.6,0c-5.3,0-10.7,0-16,0c-0.6,0-0.7,0.2-0.7,0.7c0,0.9,0,1.8,0,2.7c-2.3,0-4.5,0-6.8,0
				c0-2.3,0-4.5,0-6.9c1.1,0,2.2,0,3.4,0c0-1.2,0-2.3,0-3.5c-1,0-1.9,0-2.8,0c-0.5,0-0.6-0.1-0.6-0.6c0-0.9,0-1.8,0-2.8
				c2.3,0,4.6,0,6.9,0c0-1.2,0-2.3,0-3.4c1.2,0,2.3,0,3.4,0c0,1.1,0,2.2,0,3.4c1.2,0,2.3,0,3.5,0c0-2.3,0-4.5,0-6.9
				c3.5,0,7,0,10.4,0c0,1.1,0,2.3,0,3.5c1.1,0,2.1,0,3.2,0c0.1,0,0.3-0.2,0.3-0.2c0-1.1,0-2.1,0-3.2c-1.2,0-2.4,0-3.5,0
				c0-1.1,0-2.3,0-3.5c-2.3,0-4.6,0-6.9,0c0-2.3,0-4.6,0-6.9c-0.3,0-0.5,0-0.7,0c-3,0-6,0-9.1,0c-0.6,0-0.7,0.2-0.7,0.7
				c0,0.9,0,1.8,0,2.7c-2.3,0-4.6,0-6.9,0c0,2.3,0,4.6,0,7c1.1,0,2.2,0,3.4,0c0,1.2,0,2.3,0,3.5c-0.9,0-1.8,0-2.7,0
				c-0.8,0-0.8,0-0.8,0.8c0,0.9,0,1.8,0,2.7c-1.2,0-2.3,0-3.4,0c0-1.1,0-2.2,0-3.4c-0.3,0-0.5,0-0.7,0c-3,0-6,0-9.1,0
				c-0.5,0-0.6-0.1-0.6-0.6c0-0.9,0-1.8,0-2.8c3.5,0,6.9,0,10.4,0c0-9.3,0-18.5,0-27.7c1.2,0,2.2,0,3.4,0c0,0.2,0,0.5,0,0.7
				c0,3,0,6,0,9.1c0,0.5,0.1,0.7,0.6,0.7c0.9,0,1.9,0,2.9,0c0-2.3,0-4.6,0-6.9c1.1,0,2.1,0,3.2,0c0.1,0,0.3,0.3,0.3,0.5
				c0,1.9,0,3.7,0,5.6c0,0.8,0,0.8,0.8,0.8c0.9,0,1.8,0,2.7,0c0,1.2,0,2.3,0,3.4c5.8,0,11.5,0,17.3,0c0,1,0,1.9,0,2.8
				c0,0.6,0.2,0.7,0.7,0.7c0.9,0,1.8,0,2.8,0C131.9,92,131.9,93.1,131.9,94.2L131.9,94.2z M121.5,108.2c-1.2,0-2.3,0-3.5,0
				c0,1.2,0,2.3,0,3.5c0.9,0,3.4,0,3.4,0v0.7c0,0,0,1.8,0,2.7c2.4,0,4.6,0,7,0c0-1,0-2,0-2.9c0-0.4,0-0.1,0-0.6c-1.9,0-6.3,0-6.9,0
				C121.5,110.7,121.5,109.1,121.5,108.2z M124.9,94.2c0-1.2,0-2.3,0-3.5c-1.1,0-2.1,0-3.1,0c-0.1,0-0.3,0.2-0.3,0.3
				c0,1.1,0,2.1,0,3.2C122.7,94.2,123.8,94.2,124.9,94.2z M114.6,115c0-1.1,0-2.2,0-3.2c0-0.1-0.1-0.2-0.2-0.2c-1.1,0-2.2,0-3.2,0
				c0,1.2,0,2.3,0,3.5C112.3,115,113.4,115,114.6,115z"/>
			<path class="st0" d="M93.7,59.6c0,8,0,16.1,0,24.1c-8.1,0-16.1,0-24.2,0c0-8,0-16.1,0-24.1C77.6,59.6,85.6,59.6,93.7,59.6z
				 M72.9,80.4c5.8,0,11.6,0,17.3,0c0-5.8,0-11.5,0-17.3c-0.3,0-0.5,0-0.7,0c-5.3,0-10.6,0-15.9,0c-0.6,0-0.8,0.2-0.8,0.7
				c0,5.3,0,10.6,0,15.9C72.9,79.9,72.9,80.1,72.9,80.4z"/>
			<path class="st0" d="M118.1,83.8c0-8,0-16.1,0-24.1c8,0,16.1,0,24.2,0c0,8,0,16.1,0,24.1C134.2,83.8,126.1,83.8,118.1,83.8z
				 M138.8,63.1c-0.2,0-0.4,0-0.6,0c-5.4,0-10.8,0-16.2,0c-0.6,0-0.6,0.2-0.6,0.7c0,5.3,0,10.7,0,16c0,0.2,0,0.4,0,0.6
				c5.8,0,11.6,0,17.3,0C138.8,74.6,138.8,68.9,138.8,63.1z"/>
			<path class="st0" d="M83.2,108.7c1,0.9,2,1.9,2.9,2.9h4.2v5.4c1.3,1.9,2.4,4,3.4,6.1v-14.9h-11C82.8,108.4,83,108.5,83.2,108.7z"
				/>
			<path class="st0" d="M111.1,70c1,0,2,0,2.9,0c0.3,0,0.5,0,0.5,0.4c0,2.1,0,4.3,0,6.5c-1.1,0-2.2,0-3.4,0c0-1.1,0-2.2,0-3.4
				c-1.2,0-2.3,0-3.5,0c0-0.9,0-1.7,0-2.5c0-1.2,0.1-1-1-1c-0.8,0-1.6,0-2.5,0c0,1.2,0,2.3,0,3.4c-1.2,0-2.3,0-3.4,0
				c0-2.3,0-4.6,0-6.9c-1.2,0-2.3,0-3.4,0c0-2.3,0-4.6,0-6.9c5.7,0,11.5,0,17.2,0c0,2.3,0,4.5,0,6.9c-1.1,0-2.2,0-3.4,0
				C111.1,67.7,111.1,68.8,111.1,70z M104.2,63c0,1.2,0,2.3,0,3.5c1.2,0,2.3,0,3.5,0c0-1.1,0-2.1,0-3.1c0-0.1-0.2-0.3-0.4-0.3
				C106.3,63,105.3,63,104.2,63z"/>
			<path class="st0" d="M78.3,104.6h4.9v-6.9h10.4v-3.4h-6.9v-3.4h-6.9v10.3h-6.4C75.1,102.3,76.8,103.4,78.3,104.6z"/>
			<path class="st0" d="M72.9,100.8v-3h-3.4v1.1C70.6,99.5,71.8,100.1,72.9,100.8z"/>
			<path class="st0" d="M107.6,128.9c0,1.2,0,2.3,0,3.4c-3.4,0-6.9,0-10.3,0c0-3.4,0-6.8,0-10.3c1.1,0,2.2,0,3.4,0
				c0,0.8,0,1.7,0,2.5c0,1-0.1,0.9,0.9,0.9c0.8,0,1.7,0,2.6,0c0,1.2,0,2.3,0,3.4C105.3,128.9,106.4,128.9,107.6,128.9z"/>
			<path class="st0" d="M79.8,90.8c-0.5,0-0.9,0-1.3,0c-1.7,0-3.3,0-5,0c-0.5,0-0.6,0.1-0.6,0.6c0,0.9,0,1.9,0,2.8
				c-1.2,0-2.3,0-3.4,0c0-2.3,0-4.5,0-6.8c3.4,0,6.8,0,10.3,0C79.8,88.5,79.8,89.6,79.8,90.8z"/>
			<path class="st0" d="M135.4,87.4c2.3,0,4.5,0,6.8,0c0,3.4,0,6.8,0,10.3c-1.1,0-2.2,0-3.4,0c0-2.3,0-4.5,0-6.9c-1.2,0-2.3,0-3.4,0
				C135.4,89.6,135.4,88.5,135.4,87.4z"/>
			<path class="st0" d="M86.9,90.7c0-1.1,0-2.2,0-3.3c2.3,0,4.5,0,6.8,0c0,1.1,0,2.2,0,3.3C91.4,90.7,89.2,90.7,86.9,90.7z"/>
			<path class="st0" d="M111.2,80.4c1.1,0,2.2,0,3.3,0c0,1.1,0,2.2,0,3.4c-1.1,0-2.2,0-3.3,0C111.2,82.7,111.2,81.6,111.2,80.4z"/>
			<path class="st0" d="M135.4,101.2c1.1,0,2.2,0,3.4,0c0,1.1,0,2.2,0,3.3c-1.1,0-2.2,0-3.4,0C135.4,103.5,135.4,102.4,135.4,101.2z
				"/>
			<path class="st0" d="M100.6,111.7c0,1.1,0,2.2,0,3.4c-1.1,0-2.2,0-3.4,0c0-1.1,0-2.2,0-3.4C98.4,111.7,99.5,111.7,100.6,111.7z"
				/>
			<path class="st0" d="M131.9,94.3c1.1,0,2.3,0,3.4,0c0,1.2,0,2.3,0,3.4c-1.1,0-2.2,0-3.4,0C131.9,96.5,131.9,95.4,131.9,94.3
				C131.9,94.2,131.9,94.3,131.9,94.3z"/>
			<path class="st0" d="M135.4,118.5c0-1.1,0-2.2,0-3.4c1.1,0,2.2,0,3.4,0c0,1.1,0,2.2,0,3.4C137.7,118.5,136.6,118.5,135.4,118.5z"
				/>
			<path class="st0" d="M114.5,101.2c-1.2,0-2.3,0-3.4,0c0-1.1,0-2.2,0-3.4c1,0,2.1,0,3.1,0c0.1,0,0.3,0.2,0.3,0.3
				C114.5,99.1,114.5,100.1,114.5,101.2z"/>
			<path class="st0" d="M142.3,108.2c0,1.1,0,2.2,0,3.3c-1.1,0-2.2,0-3.4,0c0-1.1,0-2.2,0-3.3C140,108.2,141.1,108.2,142.3,108.2z"
				/>
			<path class="st0" d="M114.5,125.5c0,1.1,0,2.2,0,3.4c-1.1,0-2.2,0-3.4,0c0-1.1,0-2.2,0-3.4C112.3,125.5,113.3,125.5,114.5,125.5z
				"/>
			<path class="st0" d="M118.1,132.3c0-1.1,0-2.2,0-3.3c1.1,0,2.2,0,3.4,0c0,1.1,0,2.2,0,3.3C120.3,132.3,119.2,132.3,118.1,132.3z"
				/>
			<path class="st0" d="M142.2,132.3c-1.1,0-2.2,0-3.4,0c0-1.1,0-2.2,0-3.4c1.1,0,2.2,0,3.4,0C142.2,130.1,142.2,131.2,142.2,132.3z
				"/>
			<path class="st0" d="M76.5,66.6c3.5,0,6.9,0,10.3,0c0,3.4,0,6.8,0,10.3c-3.4,0-6.8,0-10.3,0C76.5,73.4,76.5,70,76.5,66.6z"/>
			<path class="st0" d="M125,76.8c0-3.4,0-6.8,0-10.3c3.4,0,6.8,0,10.3,0c0,3.4,0,6.8,0,10.3C131.9,76.8,128.5,76.8,125,76.8z"/>
		</g>
	</g>
</g>
<circle class="st2" cx="43.6" cy="148.4" r="43.6"/>
<path class="st3" d="M62.9,164.6c0.1-1.1-0.1-2.2-0.3-2.7c-1.1-3.3-5.6-5.4-8.8-6.8c-1.2-0.5-4.7-1.5-5.1-3
	c-0.7-2.5,1.8-4.4,2.9-6.3c1.2-2.1,2.1-4.8,2.3-7.2c0.7-8.4-4.4-13.2-11.8-12.4c-5.3,0.6-8.5,4.6-8.9,9.7c-0.4,5.2,1.6,9.1,3.6,11.9
	c0.9,1.2,1.8,2,1.7,3.5c-0.2,1.8-2.1,2.3-3.4,2.8c-1.6,0.6-3.3,1.6-4.1,2.1c-2.8,1.5-5.9,3.4-6.6,6c-0.3,0.9-0.3,1.8-0.2,2.5H62.9z"
	/>
</svg>
