<?xml version="1.0" encoding="utf-8"?>
<!-- Generator: Adobe Illustrator 22.1.0, SVG Export Plug-In . SVG Version: 6.00 Build 0)  -->
<svg version="1.1" xmlns="http://www.w3.org/2000/svg" xmlns:xlink="http://www.w3.org/1999/xlink" x="0px" y="0px"
	 viewBox="0 0 222.4 260" enable-background="new 0 0 222.4 260" xml:space="preserve">
<g id="Layer_3">
	<g>
		<path fill="#00136F" d="M189.8,31.5C168.8,11.2,140.9,0,111.2,0C81.6,0,53.7,11.2,32.7,31.5C11.6,51.8,0,78.9,0,107.8
			s11.6,55.9,32.7,76.3l78.5,75.9l78.5-75.9c21.1-20.4,32.7-47.5,32.7-76.3S210.8,51.8,189.8,31.5z"/>
	</g>
</g>
<g id="Layer_2">
	<g>
		<g>
			<g>
				<path fill="#FFFFFF" d="M175.8,149.9c-1.9-2.5-9.9-2.3-16.9-1.5c-9.4,1.1-12.4,2.1-25.5,7.9c-7.7,3.4-11.8,5.8-25.6,6.8
					c-13.8,0.9-28.7,0.7-34.7-3c-6-3.7-5.5-9.1-5.5-9.1l-9-0.6c0,0-0.1,7.8-1.9,11c-2.3,4.2-11.5,2.8-14,2.8c-1.4,0-0.5,4.2,0.9,6
					c0.9,1.1,56.8,3.1,75.4,1.6c18.4-1.4,41-3.2,58.9-10.5c3.9-1.6,2.3-2.9,1.8-4.4C179.2,155.7,177.2,151.7,175.8,149.9z
					 M154.4,161c-6.8,0.8-12.3-0.1-12.3-1.8s5.5-3.8,12.4-4.6c6.8-0.8,12.3,0.1,12.3,1.8C166.8,158.2,161.2,160.2,154.4,161z"/>
			</g>
			<path fill="#FFFFFF" d="M175,137.3c0.1,0.8-0.2,4.6-5.8,6c-4.9,1.2-22,4-33.4,4.1c-8.1,0.1-17.7-1.6-26-3.9
				c-9-2.4-16.7-5.8-26.3-9.1c-0.8-0.2-1,0.4-1,0.7c-0.1,3.8-0.1,6.1-0.7,10.1c-0.7,1.2-5.9,1.1-8.8,1.1c-6.5,0-16.5,0.3-17.3-1.4
				c-1.6-3.4-2.8-9-4-17.4c-0.3-1,0-1.7,1.6-1.7c19.2,0.3,29.3,0.9,52.6,10.6c13.1,5.5,30.6,5.9,44.2,4.3
				c10.3-1.2,15.8-2.8,20.3-4.1C174.9,135.3,174.9,136.5,175,137.3z"/>
			<path fill="#FFFFFF" d="M55.3,58.5c0,0,21.9-9.4,36.4-12.7c2.2-0.9,4.9,0,5.4,3.5c0,0,1.6,9.3,6.8,20.3s9.6,24.7,23.6,32.6
				s25,7.3,31.3,8.2c6.3,0.9,12.5,1.7,15.1,5.4c2.5,3.6,3.2,10.5,0.6,13.8c-1.8,2.3-5.3,4.9-16.9,6.8c-14.4,2.4-23.9,2.3-34,1.2
				c-10.1-1.1-16.3-4.7-30.7-9.3c-5.2-1.7-9.4-4.2-22.7-5.2c-12.2-0.9-18.3-1.2-19.4-2.3c-2-1.9-3.3-5.4-2.7-14.4
				c0.6-8.9,5.1-21.5,5.9-29.6C54.9,68.9,55.3,58.5,55.3,58.5z"/>
			<g>
				<circle display="none" fill="#00136F" cx="137.8" cy="114.5" r="3.7"/>
				<circle fill="#00136F" cx="122.7" cy="109.5" r="3.7"/>
				<circle fill="#00136F" cx="111.2" cy="100" r="3.7"/>
				<circle fill="#00136F" cx="102.9" cy="89.2" r="3.7"/>
				<circle fill="#00136F" cx="96.9" cy="76.5" r="3.7"/>
				<circle display="none" fill="#00136F" cx="93.1" cy="63.8" r="3.7"/>
			</g>
		</g>
		
			<path display="none" fill="none" stroke="#FFFFFF" stroke-width="3" stroke-linecap="round" stroke-linejoin="round" stroke-miterlimit="10" d="
			M93.5,63.2c0,0,10.1-4.2,13.1,1.1c2.2,3.9-7.7,11.3-7.7,11.3s10.8-2.7,12.5,1c1.9,4.1-7,11.8-7,11.8s9.8-5.1,12.5-1.9
			c3.4,4.2-4.6,12.5-4.6,12.5s9.3-4.6,11.9-3c4.7,2.9-0.4,11.9-0.4,11.9s7.2-7.9,11.9-5.9c5.2,2.2,2.3,11.5,2.3,11.5"/>
		<path fill="none" stroke="#FFFFFF" stroke-width="3" stroke-linecap="round" stroke-linejoin="round" stroke-miterlimit="10" d="
			M94.7,58.9c8.1-4.3,11.6-5,15.6-10.3c2.4-3.1,1.2-8.7-3.4-7.8c-7.5,1.5-11.4,14.7-13.7,14.7c-3.2-0.1,9.4-20,1.6-21.6
			c-10.2-2-3.3,22.2-4.4,22.5c-19.2,4.5-27.5-0.9-30.9-11.2"/>
	</g>
	<rect x="36.2" y="28" fill="none" width="150" height="150"/>
</g>
</svg>
