<?xml version="1.0" encoding="utf-8"?>
<!-- Generator: Adobe Illustrator 24.0.2, SVG Export Plug-In . SVG Version: 6.00 Build 0)  -->
<svg version="1.1" id="Слой_1" xmlns="http://www.w3.org/2000/svg" xmlns:xlink="http://www.w3.org/1999/xlink" x="0px" y="0px"
	 viewBox="0 0 50 50" enable-background="new 0 0 50 50" xml:space="preserve">
<path fill="#00136F" d="M6,20.54v3.55h1.77v-1.46c0-0.27,0.06-0.32,0.32-0.32h3.29v-1.77H6z M9.65,9.68v5.38h5.38V9.68H9.65z
	 M9.65,9.68v5.38h5.38V9.68H9.65z M9.65,9.68v5.38h5.38V9.68H9.65z M9.65,9.68v5.38h5.38V9.68H9.65z M9.65,9.68v5.38h5.38V9.68H9.65
	z M9.65,9.68v5.38h5.38V9.68H9.65z M9.65,9.68v5.38h5.38V9.68H9.65z M9.65,9.68v5.38h5.38V9.68H9.65z M6,6.03v12.58h12.63V6.03H6z
	 M16.8,16.88H7.77c0-0.15,0-0.26-0.05-0.36v-8.3c0-0.26,0.11-0.37,0.42-0.37h8.66V16.88z M15.03,9.68H9.65v5.38h5.38V9.68z
	 M9.65,9.68v5.38h5.38V9.68H9.65z M9.65,9.68v5.38h5.38V9.68H9.65z M9.65,9.68v5.38h5.38V9.68H9.65z M9.65,9.68v5.38h5.38V9.68H9.65
	z M9.65,9.68v5.38h5.38V9.68H9.65z M9.65,9.68v5.38h5.38V9.68H9.65z M9.65,9.68v5.38h5.38V9.68H9.65z M9.65,9.68v5.38h5.38V9.68
	H9.65z M15.08,20.54v1.72h3.55v-1.72H15.08z M15.03,24.14v-1.78h-3.6v5.38H7.77v-1.77H6v3.55h7.2v-3.61h5.43v-1.77
	C18.63,24.14,15.03,24.14,15.03,24.14z M9.65,35v5.37h5.38V35H9.65z M9.65,35v5.37h5.38V35H9.65z M6,31.39v12.58h12.63V31.39H6z
	 M16.86,42.2c-3.03,0-6.01,0-8.98,0.05v-0.31c0-2.82,0-8.77,0-8.77s0,0,0.26,0h8.72V42.2z M15.03,35H9.65v5.37h5.38V35z
	 M20.46,33.22V35h1.77v-1.78H20.46z M24.11,42.15v-1.78h-1.35c-0.53,0-0.47,0.05-0.47-0.47v-1.3h-1.78v5.37h5.38V42.2
	C25.26,42.2,24.69,42.2,24.11,42.15z M29.49,9.63v-3.6h-8.98v3.6h1.78v3.6h1.77v-1.78h1.31c0.57,0,0.52-0.1,0.52,0.53v1.3h1.82v1.78
	h1.78v-3.4c0-0.21-0.11-0.21-0.26-0.21h-1.52V9.63H29.49z M25.94,9.63h-1.83V7.8c0.58,0,1.1,0,1.62,0.05c0.11,0,0.21,0.11,0.21,0.16
	V9.63z M27.77,16.88v1.78h1.72v-1.78H27.77z M29.33,25.97h-1.62v1.77h1.78v-1.62C29.49,26.07,29.38,25.97,29.33,25.97z M27.71,40.42
	v1.78h1.78v-1.78H27.71z M31.37,42.25v1.72h1.77v-1.72H31.37z M38.57,24.14v1.77h1.78v-1.77H38.57z M40.4,27.74v1.72h1.77v-1.72
	H40.4z M40.4,35v1.77h1.77V35H40.4z M40.4,20.54v1.77h1.77v3.6h1.78v-5.37H40.4z M40.35,38.6v-1.52c0-0.26-0.06-0.31-0.32-0.31
	h-1.46v-3.65h1.78v-3.14c0-0.52,0.05-0.46-0.47-0.46h-1.36v-3.61h-1.51c-0.11,0-0.27-0.1-0.27-0.15v-1.67h1.83v-1.57h-1.46
	c-0.26,0-0.37-0.05-0.37-0.36v-1.47h-9.03v-1.77H26.3c-0.41,0-0.41,0-0.41-0.42v-2.92c0-0.11-0.11-0.26-0.16-0.26h-1.67v3.6h-1.51
	c-0.26,0-0.32-0.11-0.32-0.37v-5.11h-1.77V27.9h-5.43v1.46c0,0.26,0.05,0.31,0.31,0.31h5.12v1.78h1.77v-1.41
	c0-0.42,0-0.42,0.42-0.42h1.41v-1.83h-1.77v-3.65h3.6v-1.41c0-0.26,0.05-0.37,0.36-0.37h5.12v3.61h3.6v1.77h-5.43v3.6h-1.83v-1.77
	h-1.77v1.77h-3.6v1.46c0,0.26,0.05,0.32,0.31,0.32h1.46v1.82h-1.77v3.61h3.55v-1.41c0-0.26,0.05-0.37,0.36-0.37h8.67v1.83h-3.6v1.77
	h1.82c0,0.26,0,0.05,0,0.32v1.51h3.6v0.36c0,0.37,0,1.41,0,1.41s1.21,0,1.78,0v-3.6h5.22c0.1,0,0.21-0.1,0.21-0.15V38.6H40.35z
	 M34.92,24.09h-1.78v-1.67c0-0.06,0.11-0.16,0.16-0.16h1.62V24.09z M29.54,34.94c-0.63,0-1.2,0-1.77,0.06v-1.83h1.67
	c0.05,0,0.1,0.05,0.1,0.1V34.94z M36.74,33.48V35h-3.65c0-0.47,0-1.41,0-1.41v-0.37c0,0-1.3,0-1.77,0v-1.83h1.82v1.78h3.6
	C36.74,33.43,36.74,33.27,36.74,33.48z M36.8,29.46c0,0-0.11,0.11-0.16,0.11h-1.67v-1.78h1.83C36.8,27.79,36.8,29.46,36.8,29.46z
	 M42.17,42.2v1.77h1.78V42.2H42.17z M31.37,6.08v12.58H44V6.08H31.37z M42.12,16.88h-9.03V8.22c0-0.26,0-0.37,0.31-0.37h8.77
	C42.17,10.88,42.17,13.86,42.12,16.88z M40.35,9.63h-5.38V15h5.38V9.63z M42.23,31.39v1.73H44v-1.73H42.23z M40.35,38.6v-1.52
	c0-0.26-0.06-0.31-0.32-0.31h-1.46v-3.65h1.78v-3.14c0-0.52,0.05-0.46-0.47-0.46h-1.36v-3.61h-1.51c-0.11,0-0.27-0.1-0.27-0.15
	v-1.67h1.83v-1.57h-1.46c-0.26,0-0.37-0.05-0.37-0.36v-1.47h-9.03v-1.77H26.3c-0.41,0-0.41,0-0.41-0.42v-2.92
	c0-0.11-0.11-0.26-0.16-0.26h-1.67v3.6h-1.51c-0.26,0-0.32-0.11-0.32-0.37v-5.11h-1.77V27.9h-5.43v1.46c0,0.26,0.05,0.31,0.31,0.31
	h5.12v1.78h1.77v-1.41c0-0.42,0-0.42,0.42-0.42h1.41v-1.83h-1.77v-3.65h3.6v-1.41c0-0.26,0.05-0.37,0.36-0.37h5.12v3.61h3.6v1.77
	h-5.43v3.6h-1.83v-1.77h-1.77v1.77h-3.6v1.46c0,0.26,0.05,0.32,0.31,0.32h1.46v1.82h-1.77v3.61h3.55v-1.41
	c0-0.26,0.05-0.37,0.36-0.37h8.67v1.83h-3.6v1.77h1.82c0,0.26,0,0.05,0,0.32v1.51h3.6v0.36c0,0.37,0,1.41,0,1.41s1.21,0,1.78,0v-3.6
	h5.22c0.1,0,0.21-0.1,0.21-0.15V38.6H40.35z M34.92,24.09h-1.78v-1.67c0-0.06,0.11-0.16,0.16-0.16h1.62V24.09z M29.54,34.94
	c-0.63,0-1.2,0-1.77,0.06v-1.83h1.67c0.05,0,0.1,0.05,0.1,0.1V34.94z M36.74,33.48V35h-3.65c0-0.47,0-1.41,0-1.41v-0.37
	c0,0-1.3,0-1.77,0v-1.83h1.82v1.78h3.6C36.74,33.43,36.74,33.27,36.74,33.48z M36.8,29.46c0,0-0.11,0.11-0.16,0.11h-1.67v-1.78h1.83
	C36.8,27.79,36.8,29.46,36.8,29.46z M9.65,9.68v5.38h5.38V9.68H9.65z M9.65,9.68v5.38h5.38V9.68H9.65z M9.65,9.68v5.38h5.38V9.68
	H9.65z M9.65,9.68v5.38h5.38V9.68H9.65z M9.65,9.68v5.38h5.38V9.68H9.65z M9.65,9.68v5.38h5.38V9.68H9.65z M9.65,9.68v5.38h5.38
	V9.68H9.65z M9.65,9.68v5.38h5.38V9.68H9.65z M9.65,9.68v5.38h5.38V9.68H9.65z M9.65,9.68v5.38h5.38V9.68H9.65z M9.65,9.68v5.38
	h5.38V9.68H9.65z M9.65,9.68v5.38h5.38V9.68H9.65z M6,6.03v12.58h12.63V6.03H6z M16.8,16.88H7.77c0-0.15,0-0.26-0.05-0.36v-8.3
	c0-0.26,0.11-0.37,0.42-0.37h8.66V16.88z M15.03,9.68H9.65v5.38h5.38V9.68z M9.65,9.68v5.38h5.38V9.68H9.65z M9.65,9.68v5.38h5.38
	V9.68H9.65z M9.65,9.68v5.38h5.38V9.68H9.65z M9.65,9.68v5.38h5.38V9.68H9.65z M9.65,9.68v5.38h5.38V9.68H9.65z M9.65,9.68v5.38
	h5.38V9.68H9.65z M9.65,9.68v5.38h5.38V9.68H9.65z M9.65,9.68v5.38h5.38V9.68H9.65z M9.65,9.68v5.38h5.38V9.68H9.65z M9.65,9.68
	v5.38h5.38V9.68H9.65z M9.65,9.68v5.38h5.38V9.68H9.65z M9.65,9.68v5.38h5.38V9.68H9.65z M9.65,9.68v5.38h5.38V9.68H9.65z
	 M34.97,9.63V15h5.38V9.63H34.97z M34.97,9.63V15h5.38V9.63H34.97z M34.97,9.63V15h5.38V9.63H34.97z M34.97,9.63V15h5.38V9.63H34.97
	z M31.37,6.08v12.58H44V6.08H31.37z M42.12,16.88h-9.03V8.22c0-0.26,0-0.37,0.31-0.37h8.77C42.17,10.88,42.17,13.86,42.12,16.88z
	 M40.35,9.63h-5.38V15h5.38V9.63z M34.97,9.63V15h5.38V9.63H34.97z M34.97,9.63V15h5.38V9.63H34.97z M34.97,9.63V15h5.38V9.63H34.97
	z M34.97,9.63V15h5.38V9.63H34.97z M34.97,9.63V15h5.38V9.63H34.97z M9.65,35v5.37h5.38V35H9.65z M9.65,35v5.37h5.38V35H9.65z
	 M9.65,35v5.37h5.38V35H9.65z M9.65,35v5.37h5.38V35H9.65z M9.65,35v5.37h5.38V35H9.65z M9.65,35v5.37h5.38V35H9.65z M6,31.39v12.58
	h12.63V31.39H6z M16.86,42.2c-3.03,0-6.01,0-8.98,0.05v-0.31c0-2.82,0-8.77,0-8.77s0,0,0.26,0h8.72V42.2z M15.03,35H9.65v5.37h5.38
	V35z M9.65,35v5.37h5.38V35H9.65z M9.65,35v5.37h5.38V35H9.65z M9.65,35v5.37h5.38V35H9.65z M9.65,35v5.37h5.38V35H9.65z M9.65,35
	v5.37h5.38V35H9.65z M29.49,9.63v-3.6h-8.98v3.6h1.78v3.6h1.77v-1.78h1.31c0.57,0,0.52-0.1,0.52,0.53v1.3h1.82v1.78h1.78v-3.4
	c0-0.21-0.11-0.21-0.26-0.21h-1.52V9.63H29.49z M25.94,9.63h-1.83V7.8c0.58,0,1.1,0,1.62,0.05c0.11,0,0.21,0.11,0.21,0.16V9.63z
	 M15.03,24.14v-1.78h-3.6v5.38H7.77v-1.77H6v3.55h7.2v-3.61h5.43v-1.77C18.63,24.14,15.03,24.14,15.03,24.14z M24.11,42.15v-1.78
	h-1.35c-0.53,0-0.47,0.05-0.47-0.47v-1.3h-1.78v5.37h5.38V42.2C25.26,42.2,24.69,42.2,24.11,42.15z M6,20.54v3.55h1.77v-1.46
	c0-0.27,0.06-0.32,0.32-0.32h3.29v-1.77H6z M40.4,20.54v1.77h1.77v3.6h1.78v-5.37H40.4z M15.08,20.54v1.72h3.55v-1.72H15.08z
	 M27.77,16.88v1.78h1.72v-1.78H27.77z M40.4,27.74v1.72h1.77v-1.72H40.4z M20.46,33.22V35h1.77v-1.78H20.46z M38.57,24.14v1.77h1.78
	v-1.77H38.57z M40.4,35v1.77h1.77V35H40.4z M29.33,25.97h-1.62v1.77h1.78v-1.62C29.49,26.07,29.38,25.97,29.33,25.97z M42.23,31.39
	v1.73H44v-1.73H42.23z M27.71,40.42v1.78h1.78v-1.78H27.71z M31.37,42.25v1.72h1.77v-1.72H31.37z M42.17,42.2v1.77h1.78V42.2H42.17z
	 M9.65,9.68v5.38h5.38V9.68H9.65z M34.97,9.63V15h5.38V9.63H34.97z M9.65,35v5.37h5.38V35H9.65z"/>
</svg>
