<?xml version="1.0" encoding="utf-8"?>
<!-- Generator: Adobe Illustrator 24.0.2, SVG Export Plug-In . SVG Version: 6.00 Build 0)  -->
<svg version="1.1" id="Layer_1" xmlns="http://www.w3.org/2000/svg" xmlns:xlink="http://www.w3.org/1999/xlink" x="0px" y="0px"
	 viewBox="0 0 46 46" enable-background="new 0 0 46 46" xml:space="preserve">
<path fill="#1877F2" d="M46,22.988C46,10.294,35.706,0,22.988,0C10.294,0,0,10.294,0,22.988c0,11.47,8.423,20.996,19.413,22.724
	V29.635h-5.855v-6.647h5.831v-5.063c0-5.759,3.431-8.95,8.686-8.95c2.52,0,5.159,0.456,5.159,0.456v5.663h-2.903
	c-2.856,0-3.743,1.776-3.743,3.599v4.319h6.383l-1.008,6.647h-5.351v16.077C37.577,43.984,46,34.482,46,22.988L46,22.988z"/>
</svg>
