<?xml version="1.0" encoding="utf-8"?>
<!-- Generator: Adobe Illustrator 24.0.2, SVG Export Plug-In . SVG Version: 6.00 Build 0)  -->
<svg version="1.1" id="Layer_1" xmlns="http://www.w3.org/2000/svg" xmlns:xlink="http://www.w3.org/1999/xlink" x="0px" y="0px"
	 viewBox="0 0 46 46" enable-background="new 0 0 46 46" xml:space="preserve">
<path fill="#F7931E" d="M23.1,14.38c-1.47,0-2.66,1.19-2.66,2.65c0,1.47,1.19,2.66,2.66,2.66c1.48,0,2.66-1.19,2.66-2.66
	C25.76,15.57,24.56,14.38,23.1,14.38z M23.1,14.38c-1.47,0-2.66,1.19-2.66,2.65c0,1.47,1.19,2.66,2.66,2.66
	c1.48,0,2.66-1.19,2.66-2.66C25.76,15.57,24.56,14.38,23.1,14.38z M23,0C10.3,0,0,10.3,0,23s10.3,23,23,23s23-10.3,23-23
	S35.7,0,23,0z M23.1,10.61c3.54,0,6.42,2.88,6.42,6.42c0,3.55-2.88,6.43-6.42,6.43c-3.55,0-6.42-2.88-6.42-6.43
	C16.68,13.49,19.55,10.61,23.1,10.61z M29.56,26.76c-0.07,0.05-1.62,1.27-4.19,1.8l3.88,3.86c0.67,0.67,0.67,1.79,0,2.46
	s-1.77,0.67-2.46,0l-3.77-3.66l-3.42,3.64c-0.34,0.36-0.79,0.53-1.25,0.53c-0.45,0-0.88-0.15-1.22-0.48
	c-0.69-0.67-0.72-1.78-0.05-2.47l3.69-3.86c-2.66-0.5-4.26-1.75-4.33-1.82c-0.75-0.6-0.87-1.7-0.27-2.44
	c0.6-0.74,1.7-0.86,2.45-0.27c0.02,0,1.7,1.27,4.4,1.27c2.71,0,4.34-1.24,4.36-1.27c0.75-0.59,1.85-0.47,2.45,0.27
	C30.43,25.06,30.31,26.16,29.56,26.76z M23.1,19.69c1.48,0,2.66-1.19,2.66-2.66c0-1.46-1.2-2.65-2.66-2.65
	c-1.47,0-2.66,1.19-2.66,2.65C20.44,18.5,21.63,19.69,23.1,19.69z M23.1,14.38c-1.47,0-2.66,1.19-2.66,2.65
	c0,1.47,1.19,2.66,2.66,2.66c1.48,0,2.66-1.19,2.66-2.66C25.76,15.57,24.56,14.38,23.1,14.38z M23.1,14.38
	c-1.47,0-2.66,1.19-2.66,2.65c0,1.47,1.19,2.66,2.66,2.66c1.48,0,2.66-1.19,2.66-2.66C25.76,15.57,24.56,14.38,23.1,14.38z"/>
</svg>
