<?xml version="1.0" encoding="utf-8"?>
<!-- Generator: Adobe Illustrator 22.1.0, SVG Export Plug-In . SVG Version: 6.00 Build 0)  -->
<svg version="1.1" id="Layer_1" xmlns="http://www.w3.org/2000/svg" xmlns:xlink="http://www.w3.org/1999/xlink" x="0px" y="0px"
	 viewBox="0 0 900 900" enable-background="new 0 0 900 900" xml:space="preserve">
<g>
	<path fill="#0A2A79" d="M847.6,458.8c0,223.6-181.2,404.8-404.7,404.8c-223.5,0-404.8-181.2-404.8-404.8
		C38.1,235.2,219.3,54,442.9,54C666.4,54,847.6,235.2,847.6,458.8"/>
	<polygon fill="#FFFFFF" points="590.8,426.8 549.3,426.8 549.3,445.3 590.8,445.2 590.8,470.3 549.3,470.3 549.3,490.8 
		590.8,490.8 590.8,525.3 506.2,525.3 506.2,393.2 590.8,393.2 	"/>
	<path fill="#FFFFFF" d="M664.4,489.1c0,0.1,16.5-33.9,16.5-33.9s16.2,34,16.2,33.9H664.4z M680.9,382.3
		c-26.8,47.2-79.5,143-79.5,143h45.2l7.3-14.4h53.9l7.1,14.4h45.5L680.9,382.3z"/>
	<path fill="#FFFFFF" d="M423.4,452.4l29.6-59.2h46c0.2,0-75.7,141.9-75.7,141.9l-75.6-141.9h46.1
		C393.9,393.2,421.1,448.3,423.4,452.4"/>
	<path fill="#FFFFFF" d="M340.8,525.3h-43.2V393.2c0,0,43.2,0.2,43.2,0V525.3z"/>
	<polygon fill="#FFFFFF" points="215.4,444.3 215.4,393.2 258.6,393.2 258.6,535.1 188.5,474.1 188.5,525.3 145.2,525.3 
		145.2,383.2 	"/>
</g>
</svg>
