<?xml version="1.0" encoding="utf-8"?>
<!-- Generator: Adobe Illustrator 22.1.0, SVG Export Plug-In . SVG Version: 6.00 Build 0)  -->
<svg version="1.1" xmlns="http://www.w3.org/2000/svg" xmlns:xlink="http://www.w3.org/1999/xlink" x="0px" y="0px"
	 viewBox="0 0 80 80" enable-background="new 0 0 80 80" xml:space="preserve">
<g id="Layer_1">
	<path fill="#A0EDF5" d="M66.6,31.8c-2,0-3.7,1.6-3.7,3.7c0,2,1.6,3.7,3.7,3.7c2,0,3.7-1.7,3.7-3.7C70.3,33.4,68.6,31.8,66.6,31.8z"
		/>
	<path fill="#A0EDF5" d="M50.3,47c-0.8,0.8-1.2,1.7-1.2,2.9c0,1.1,0.4,2.1,1.2,2.9l8.1,8.3l0,6.7H63v-9.3c0-0.6-0.3-1.2-0.7-1.7
		l-5.4-5.4L64,44c1.3-1.7,0.6-3.7,0.6-3.7c-0.7-2.3-3.3-2.3-3.3-2.3l-18.5,0v3.6l12.8,0L50.3,47z"/>
	<path fill="#A0EDF5" d="M48.7,53.1l-9.4,9.5l3.2,3.1l9.3-9.5l-2.6-2.6C49,53.5,48.9,53.3,48.7,53.1z"/>
	<path fill="#A0EDF5" d="M55.4,72.8h10.2c1.2,0,2.2-1,2.2-2.2H55.4V72.8z"/>
	<path fill="#A0EDF5" d="M34,63.9l7.2,7.2c0.9,0.9,2.2,0.9,3.1,0l-8.7-8.7L34,63.9z"/>
	<circle fill="#A0EDF5" cx="43.1" cy="39.7" r="1.8"/>
	<circle fill="#A0EDF5" cx="41" cy="64.2" r="2.2"/>
	<circle fill="#A0EDF5" cx="60.7" cy="67.7" r="2.3"/>
</g>
<g id="Layer_2">
	<g>
		<path fill="#A0EDF5" d="M10,10.4c0,1.8,1.4,3.2,3.2,3.2c1.8,0,3.2-1.5,3.2-3.2c0-1.8-1.4-3.2-3.2-3.2C11.5,7.2,10,8.6,10,10.4z"/>
		<path fill="#A0EDF5" d="M22.8,15.7l11.2,0v-3.2l-16.2,0c0,0-2.2,0.1-2.9,2.1c0,0-0.6,1.8,0.6,3.3l6.3,6.4L17,29
			c-0.4,0.4-0.6,0.9-0.6,1.5v8.2h4l0-5.9l7.1-7.3c0.6-0.6,1-1.5,1-2.5c0-1-0.3-1.8-1-2.5L22.8,15.7z"/>
		<path fill="#A0EDF5" d="M23.7,23.1l0,3.3L42,26.4l0-3.9l-18.4-0.1C23.7,22.7,23.7,22.9,23.7,23.1z"/>
		<path fill="#A0EDF5" d="M23,41.2H12.2c0,1.1,0.9,1.9,1.9,1.9H23V41.2z"/>
		<path fill="#A0EDF5" d="M44.3,20v10.9c1.1,0,1.9-0.9,1.9-1.9l0-8.9L44.3,20z"/>
		<circle fill="#A0EDF5" cx="33.9" cy="14.2" r="1.6"/>
		<circle fill="#A0EDF5" cx="42" cy="24.5" r="1.9"/>
		<circle fill="#A0EDF5" cx="18.4" cy="38.7" r="2"/>
		<circle fill="#A0EDF5" cx="13" cy="26.6" r="1.6"/>
		<polygon fill="#A0EDF5" points="19.4,18 11.8,25.6 14.1,27.8 23.9,18 		"/>
	</g>
</g>
</svg>
