<?xml version="1.0" encoding="utf-8"?>
<!-- Generator: Adobe Illustrator 22.1.0, SVG Export Plug-In . SVG Version: 6.00 Build 0)  -->
<svg version="1.1" id="Layer_1" xmlns="http://www.w3.org/2000/svg" xmlns:xlink="http://www.w3.org/1999/xlink" x="0px" y="0px"
	 viewBox="0 0 80 80" enable-background="new 0 0 80 80" xml:space="preserve">
<path fill="#A0EDF5" d="M56.5,56.4l-9.8-9.8l-0.6,0.1l-0.7,0.9l9.9,9.9l-3.6,3.6l-9.4-9.4l-1,1.4l9.2,9.2c0.7,0.7,1.8,0.7,2.4,0
	l3.6-3.6C57.2,58.2,57.2,57.1,56.5,56.4z"/>
<path fill="#A0EDF5" d="M26.4,36l3.6-3.6l11.7,11.7l0.9-0.7l0.1-0.6L31.2,31.2c0.6-0.6,0.7-1.4,0.3-2.1l-2.8-4.7
	c1.8-1,5.7-2.4,11-2.4c0.5,0,0.9-0.2,1.2-0.5c0.2-0.2,0.4-0.6,0.5-0.9c0.1-0.8-0.4-1.6-1.2-1.9c-6.3-2.1-15.9-2.4-26,7.7
	c-0.5,0.5-0.6,1.1-0.4,1.7c0,0.1,0.8,2.7-0.8,4.3l-0.3,0.3c-1.1-0.3-2.4,0-3.3,0.9L7,36c-0.7,0.7-0.7,1.8,0,2.4l4.8,4.8
	c0.7,0.7,1.8,0.7,2.4,0l2.4-2.4c0.9-0.9,1.2-2.2,0.9-3.3l0.3-0.3c1.7-1.7,4.3-0.6,4.8,0c0.7,0.7,1.8,0.7,2.4,0l11,11l1.4-1L26.4,36z
	"/>
<path fill="#A0EDF5" d="M32.4,53.7c-1.9,0-3.4,1.5-3.4,3.4c0,1.9,1.5,3.4,3.4,3.4c1.9,0,3.4-1.5,3.4-3.4
	C35.8,55.2,34.3,53.7,32.4,53.7z M32.4,58.8c-0.9,0-1.7-0.8-1.7-1.7c0-0.9,0.8-1.7,1.7-1.7c0.9,0,1.7,0.8,1.7,1.7
	C34.1,58,33.3,58.8,32.4,58.8z"/>
<path fill="#A0EDF5" d="M73,26.7L62.7,16.5C62.4,16.1,62,16,61.5,16c-0.4,0-0.9,0.2-1.2,0.5L50.1,26.7c-0.3-0.3-0.7-0.4-1.1-0.4
	c-0.4,0-0.9,0.2-1.2,0.5l-4.6,4.6c-0.6,0.6-0.7,1.7,0,2.4c-0.2,0.2-0.4,0.5-0.4,0.8l-1.6,7.9L27.6,52.6c0,0-0.1,0.1-0.2,0.2
	c-2.6,2.6-2.6,6.7,0,9.3c1.2,1.2,2.9,1.9,4.6,1.9c1.8,0,3.4-0.7,4.6-1.9c0.1-0.1,0.1-0.1,0.2-0.2l10.2-13.5l7.9-1.6
	c0.3-0.1,0.6-0.2,0.8-0.4c0.3,0.3,0.7,0.5,1.1,0.5c0.4,0,0.9-0.2,1.2-0.5l4.6-4.6c0.6-0.6,0.7-1.7,0.1-2.3L73,29.2
	C73.7,28.5,73.7,27.4,73,26.7z M46.1,46.8l-10.6,14c-0.9,0.9-2.2,1.4-3.4,1.4c-1.2,0-2.5-0.5-3.4-1.4c-1.9-1.9-1.9-5,0-6.9l14-10.6
	l1.7-8.5l10.2,10.2L46.1,46.8z M58.7,42.3c-0.2,0.2-0.4,0.3-0.6,0.3s-0.4-0.1-0.6-0.3L47.2,32c-0.3-0.3-0.3-0.9,0-1.2
	c0.3-0.3,0.9-0.3,1.2,0l10.3,10.3C59,41.4,59,41.9,58.7,42.3z M61.6,38.2L51.3,27.9l10.2-10.2l2.8,2.8l-1.7,1.7
	c-0.3,0.3-0.3,0.9,0,1.2c0.2,0.2,0.4,0.3,0.6,0.3s0.4-0.1,0.6-0.3l1.7-1.7l0.5,0.5l-6.9,6.9c-0.3,0.3-0.3,0.9,0,1.2
	c0.2,0.2,0.4,0.3,0.6,0.3c0.2,0,0.4-0.1,0.6-0.3l6.9-6.9l0.5,0.5l-3.4,3.4c-0.3,0.3-0.3,0.9,0,1.2c0.2,0.2,0.4,0.3,0.6,0.3
	c0.2,0,0.4-0.1,0.6-0.3l3.4-3.4l0.5,0.5l-5.1,5.1c-0.3,0.3-0.3,0.9,0,1.2c0.2,0.2,0.4,0.3,0.6,0.3c0.2,0,0.4-0.1,0.6-0.3l5.1-5.1
	l1.1,1.1L61.6,38.2z"/>
</svg>
