<?xml version="1.0" encoding="utf-8"?>
<!-- Generator: Adobe Illustrator 24.0.2, SVG Export Plug-In . SVG Version: 6.00 Build 0)  -->
<svg version="1.1" id="Слой_1" xmlns="http://www.w3.org/2000/svg" xmlns:xlink="http://www.w3.org/1999/xlink" x="0px" y="0px"
	 viewBox="0 0 24 24" enable-background="new 0 0 24 24" xml:space="preserve">
<g>
	<path d="M7.831,7.147c0.131,0.118,0.327,0.108,0.453-0.016c1.032-1.019,2.372-1.612,3.847-1.69
		c2.945-0.132,5.482,1.942,6.005,4.764c0.035,0.191-0.114,0.368-0.309,0.377l-1.288,0.059c-0.291,0.013-0.421,0.373-0.205,0.569
		l3.733,3.395c0.134,0.122,0.341,0.112,0.462-0.022l3.385-3.737c0.195-0.216,0.033-0.56-0.258-0.546l-1.73,0.082
		c-0.485-5.051-4.863-8.887-9.988-8.65C9.507,1.862,7.241,2.874,5.543,4.624c-0.128,0.132-0.117,0.346,0.019,0.47L7.831,7.147z"/>
	<path d="M0.328,13.032h1.629c0.166,0,0.302,0.125,0.322,0.289c0.274,2.25,1.277,4.343,2.894,5.962
		c1.933,1.925,4.493,2.995,7.213,2.995c2.607,0.019,5.069-0.951,6.968-2.735c0.134-0.126,0.134-0.34,0.004-0.47l-2.557-2.557
		c-1.168,1.17-2.743,1.823-4.416,1.823c-1.66,0-3.218-0.668-4.411-1.849c-0.848-0.848-1.409-1.914-1.645-3.062
		c-0.041-0.199,0.119-0.383,0.322-0.383h1.382c0.291,0,0.437-0.352,0.232-0.558l-3.847-3.86C4.292,8.499,4.084,8.499,3.957,8.626
		l-3.86,3.846C-0.11,12.679,0.036,13.032,0.328,13.032z"/>
</g>
</svg>
