<?xml version="1.0" encoding="utf-8"?>
<!-- Generator: Adobe Illustrator 24.0.2, SVG Export Plug-In . SVG Version: 6.00 Build 0)  -->
<svg version="1.1" id="Слой_1" xmlns="http://www.w3.org/2000/svg" xmlns:xlink="http://www.w3.org/1999/xlink" x="0px" y="0px"
	 viewBox="0 0 24 24" enable-background="new 0 0 24 24" xml:space="preserve">
<g>
	<path d="M12,0C5.386,0,0,5.386,0,12s5.386,12,12,12s12-5.386,12-12S18.614,0,12,0z M10.186,17.553l-5.33-5.358l1.591-1.591
		l3.767,3.767l7.367-7.367l1.591,1.591L10.186,17.553z"/>
</g>
</svg>
