<?xml version="1.0" encoding="utf-8"?>
<!-- Generator: Adobe Illustrator 22.1.0, SVG Export Plug-In . SVG Version: 6.00 Build 0)  -->
<svg version="1.1" id="Слой_1" xmlns="http://www.w3.org/2000/svg" xmlns:xlink="http://www.w3.org/1999/xlink" x="0px" y="0px"
	 viewBox="0 0 7.3 24" enable-background="new 0 0 7.3 24" xml:space="preserve">
<path fill="#121E6B" d="M2.9,18.5v-10l-1.8,1.8L0,9.2l3.7-3.7l3.7,3.7l-1.1,1.1L4.4,8.5v10H2.9z"/>
</svg>
