<?xml version="1.0" encoding="utf-8"?>
<!-- Generator: Adobe Illustrator 22.1.0, SVG Export Plug-In . SVG Version: 6.00 Build 0)  -->
<svg version="1.1" id="Layer_1" xmlns="http://www.w3.org/2000/svg" xmlns:xlink="http://www.w3.org/1999/xlink" x="0px" y="0px"
	 viewBox="0 0 34 23" enable-background="new 0 0 34 23" xml:space="preserve">
<path fill="#FFFFFF" d="M30.7,0L14.3,16.4l3.3,3.3L34,3.3L30.7,0z M3.3,5.5L0,8.8l11,11l3.3-3.3L3.3,5.5z M17.5,19.7L14.3,23
	L11,19.7l3.3-3.3L17.5,19.7z"/>
</svg>
