{
	"list": [
		{
			"id": "100",
			"url": "rinks_item.html",
			"city": "Воронеж",
			"score": "375",
			"address": "Площадка на ул. Североморская, 45",
			"img": "/assets/img/image/rinks/1.jpg",

			"vk": {
				"vote": "N",
				"auth": "Y"
			},
			"fb": {
				"vote": "Y",
				"auth": "Y"
			}
		},{
			"id": "100",
			"url": "rinks_item.html",
			"city": "Нижний новгород",
			"score": "9149",
			"address": "Переулок Снежный, 14",
			"position": "1",
			"img": "/assets/img/image/rinks/1.jpg",

			"vk": {
				"vote": "N",
				"auth": "Y"
			},
			"fb": {
				"vote": "Y",
				"auth": "Y"
			}
		},{
			"id": "100",
			"url": "rinks_item.html",
			"city": "Иркутск",
			"score": "1263",
			"address": "Улица Заречная, 9",
			"position": "2",
			"img": "/assets/img/image/rinks/1.jpg",

			"vk": {
				"vote": "N",
				"auth": "Y"
			},
			"fb": {
				"vote": "Y",
				"auth": "Y"
			}
		}
	],

	"pages": {
		"prev": [1, "URL_PREV_PAGE"],
		"next": [3, "URL_NEXT_PAGE"],
		"list": {
			"1": "#URL_PAGE_1",
			"2": "active",
			"3": "#URL_PAGE_4"
		}
	}
}